{
    "id" : "com.feaneron.Liveblast",
    "runtime" : "org.gnome.Platform",
    "runtime-version" : "master",
    "sdk" : "org.gnome.Sdk",
    "sdk-extensions" : [
        "org.freedesktop.Sdk.Extension.rust-stable",
        "org.freedesktop.Sdk.Extension.llvm18"
    ],
    "command" : "liveblast",
    "finish-args" : [
        "--share=network",
        "--share=ipc",
        "--socket=fallback-x11",
        "--socket=pulseaudio",
        "--device=dri",
        "--socket=wayland"
    ],
    "build-options" : {
        "append-path": "/usr/lib/sdk/rust-stable/bin:/usr/lib/sdk/llvm18/bin",
        "build-args" : [
            "--share=network"
        ],
        "env" : {
            "CARGO_TARGET_X86_64_UNKNOWN_LINUX_GNU_LINKER": "clang",
            "CARGO_TARGET_X86_64_UNKNOWN_LINUX_GNU_RUSTFLAGS": "-C link-arg=-fuse-ld=/usr/lib/sdk/rust-stable/bin/mold",
            "CARGO_TARGET_AARCH64_UNKNOWN_LINUX_GNU_LINKER": "clang",
            "CARGO_TARGET_AARCH64_UNKNOWN_LINUX_GNU_RUSTFLAGS": "-C link-arg=-fuse-ld=/usr/lib/sdk/rust-stable/bin/mold",
            "CARGO_REGISTRIES_CRATES_IO_PROTOCOL": "sparse",
            "RUST_BACKTRACE" : "1",
            "RUST_LOG" : "liveblast=debug"
        }
    },
    "cleanup" : [
        "/include",
        "/lib/pkgconfig",
        "/man",
        "/share/doc",
        "/share/gtk-doc",
        "/share/man",
        "/share/pkgconfig",
        "*.la",
        "*.a"
    ],
    "modules" : [
        {
            "name" : "liveblast",
            "buildsystem" : "meson",
            "secret-opts" : [
                "-Dsentry-endpoint=$SENTRY_ENDPOINT"
            ],
            "sources" : [
                {
                    "type" : "git",
                    "url" : "https://gitlab.gnome.org/feaneron/liveblast.git"
                }
            ]
        }
    ]
}
